{
	"name": "@acce/deno-parser",
	"version": "1.0.0",
	"exports": "./mod.ts",
	"lint": {
		"rules": {
			"exclude": [
				"import-node-prefix-missing",
				"no-inferrable-types",
				"no-explicit-any",
				"require-await"
			]
		}
	},
	"tasks": {
		"dev": "deno test -A --watch",
		"test": "deno test -A"
	},
	"imports": {
		"@std/": "https://deno.land/std@0.216.0/"
	}
}